<?xml version="1.0" standalone="no"?>
<!DOCTYPE svg PUBLIC "-//W3C//DTD SVG 20010904//EN"
 "http://www.w3.org/TR/2001/REC-SVG-20010904/DTD/svg10.dtd">
<svg version="1.0" xmlns="http://www.w3.org/2000/svg"
 width="852.000000pt" height="852.000000pt" viewBox="0 0 852.000000 852.000000"
 preserveAspectRatio="xMidYMid meet">
<metadata>
Created by potrace 1.14, written by Peter Selinger 2001-2017
</metadata>
<g transform="translate(0.000000,852.000000) scale(0.100000,-0.100000)"
fill="#000000" stroke="none">
<path d="M5846 8423 c-2 -2 -30 -6 -63 -8 -73 -5 -156 -16 -164 -21 -4 -2 -26
-6 -50 -8 -24 -3 -54 -7 -65 -10 -12 -2 -37 -7 -55 -10 -19 -3 -45 -8 -59 -11
-14 -3 -36 -7 -50 -10 -53 -10 -199 -44 -275 -65 -44 -12 -89 -23 -100 -26
-74 -15 -461 -147 -570 -194 -49 -21 -74 -30 -78 -28 -1 1 -15 -5 -32 -14 -48
-26 -164 -78 -175 -78 -6 0 -10 -4 -10 -10 0 -5 -5 -10 -12 -10 -28 0 -287
-138 -503 -267 -77 -46 -149 -90 -160 -96 -11 -7 -22 -14 -25 -17 -3 -3 -33
-23 -67 -45 -35 -22 -63 -43 -63 -47 0 -5 -5 -8 -10 -8 -8 0 -97 -59 -145 -97
-6 -4 -48 -37 -95 -73 -47 -35 -87 -67 -90 -70 -3 -3 -27 -24 -55 -45 -27 -22
-52 -42 -55 -45 -3 -3 -39 -34 -80 -69 -173 -148 -423 -399 -595 -596 -68 -77
-259 -321 -329 -419 -134 -187 -356 -539 -356 -565 0 -6 -4 -11 -10 -11 -5 0
-10 -9 -10 -19 0 -11 -4 -21 -9 -23 -12 -4 -221 -423 -221 -443 0 -2 -13 -32
-29 -67 -51 -111 -90 -208 -84 -208 3 0 1 -6 -5 -13 -12 -14 -132 -366 -138
-406 -3 -14 -9 -37 -14 -51 -10 -29 -47 -196 -56 -254 -3 -21 -7 -48 -10 -60
-35 -183 -37 -541 -4 -703 6 -26 13 -63 15 -82 11 -70 59 -208 111 -318 162
-340 477 -589 844 -668 109 -24 109 -24 180 -30 151 -14 450 -3 550 20 14 3
39 8 55 11 27 4 126 26 180 39 11 2 58 16 105 30 47 14 92 27 100 29 29 8 232
85 319 121 100 42 488 241 501 256 4 5 47 30 111 64 11 5 19 13 19 17 0 5 4 8
10 8 18 0 277 177 414 283 48 38 89 67 91 65 3 -3 -124 -199 -167 -259 -160
-222 -324 -439 -348 -459 -3 -3 -24 -27 -45 -55 -22 -27 -51 -61 -65 -75 -14
-14 -37 -41 -52 -60 -14 -19 -73 -84 -130 -143 l-103 -108 -35 10 c-37 11 -71
18 -130 27 -19 3 -42 7 -50 10 -8 3 -26 8 -40 10 -50 8 -75 13 -75 14 0 1 -13
3 -30 5 -16 2 -48 7 -70 10 -22 4 -51 8 -65 10 -14 1 -50 6 -80 10 -30 4 -68
9 -85 10 -219 20 -380 23 -537 10 -51 -4 -101 -8 -110 -9 -10 0 -18 -3 -18 -6
0 -3 -12 -5 -27 -4 -16 0 -41 -3 -58 -7 -16 -4 -43 -10 -60 -13 -44 -7 -63
-12 -130 -32 -33 -10 -64 -19 -70 -20 -9 -2 -59 -21 -148 -56 -16 -5 -67 -31
-115 -55 -274 -141 -523 -376 -636 -599 -90 -180 -111 -263 -110 -439 1 -109
5 -141 30 -225 14 -49 71 -177 84 -190 3 -3 18 -23 35 -45 54 -73 190 -185
224 -185 5 0 11 -4 13 -8 5 -12 160 -61 220 -69 106 -14 273 -5 348 18 19 5
45 12 58 15 35 7 199 73 262 106 30 15 60 28 67 28 7 0 13 5 13 10 0 6 6 10
13 10 24 0 461 269 487 301 3 3 20 14 38 24 17 11 32 23 32 27 0 4 4 8 10 8 5
0 18 7 27 15 10 8 65 51 123 95 58 44 112 86 120 93 8 7 29 22 45 35 64 49
286 231 360 297 69 61 201 184 251 232 53 53 56 53 119 38 11 -2 47 -11 80
-20 33 -8 71 -18 85 -21 14 -3 68 -16 120 -29 52 -13 107 -26 123 -29 15 -2
35 -7 45 -10 17 -5 40 -10 97 -21 17 -3 41 -8 55 -11 14 -4 34 -8 45 -9 11 -2
47 -8 80 -14 59 -10 84 -14 175 -25 111 -15 148 -18 355 -32 192 -12 576 -6
700 12 16 2 55 6 85 9 82 9 144 17 220 31 14 2 41 7 60 10 19 3 77 15 129 26
141 30 166 36 166 38 0 1 9 3 19 5 16 3 48 11 76 20 3 1 25 7 50 14 127 36
341 114 470 171 247 108 556 283 583 330 46 76 3 181 -75 183 -26 0 -170 -46
-438 -141 -8 -3 -19 -6 -25 -8 -5 -1 -73 -21 -150 -44 -77 -23 -151 -44 -165
-46 -14 -3 -33 -7 -42 -10 -9 -3 -25 -7 -35 -9 -10 -2 -65 -15 -123 -29 -58
-14 -120 -28 -138 -31 -18 -3 -65 -12 -105 -21 -39 -8 -91 -17 -113 -20 -23
-3 -50 -6 -60 -8 -72 -14 -157 -26 -219 -31 -27 -2 -70 -7 -95 -9 -114 -14
-147 -16 -272 -22 -209 -10 -540 -5 -663 10 -22 3 -71 8 -110 11 -38 4 -81 8
-95 11 -14 2 -45 6 -70 9 -25 3 -83 13 -130 22 -47 8 -96 17 -109 19 -12 3
-53 12 -90 20 -36 9 -75 18 -86 20 -80 16 -131 28 -137 33 -4 4 4 20 18 36 14
17 43 50 64 75 22 25 67 79 101 120 33 41 70 85 80 98 33 39 224 295 259 347
19 28 36 52 39 55 5 4 106 155 186 280 95 146 312 534 389 695 74 153 154 329
193 425 8 19 18 44 23 55 15 33 111 279 115 295 2 8 29 88 60 178 31 90 57
184 59 210 8 93 -45 172 -147 221 -65 31 -137 34 -199 8 -33 -14 -98 -73 -98
-89 0 -5 -5 -14 -10 -21 -6 -7 -40 -64 -76 -127 -91 -160 -284 -446 -349 -516
-5 -6 -23 -29 -40 -50 -31 -39 -63 -78 -125 -149 -59 -68 -351 -358 -419 -415
-105 -90 -88 -76 -231 -188 -153 -119 -438 -300 -610 -387 -30 -15 -62 -31
-70 -36 -58 -34 -298 -139 -317 -139 -7 0 -13 -4 -13 -8 0 -5 -6 -9 -12 -10
-11 -1 -303 -100 -303 -103 0 0 -7 -2 -15 -4 -8 -1 -33 -7 -55 -13 -95 -26
-225 -50 -315 -58 -180 -18 -397 -3 -500 34 -8 3 -17 6 -20 7 -40 10 -145 57
-174 77 -145 103 -211 174 -275 298 -42 81 -98 239 -105 298 -3 20 -5 37 -6
37 -3 0 -8 37 -15 103 -10 92 -11 240 -1 342 12 126 13 142 21 180 4 19 8 49
10 65 2 17 8 42 14 56 5 15 7 29 5 32 -3 3 -1 14 4 24 5 10 12 34 15 53 15
101 151 516 217 665 10 22 30 69 45 105 47 114 204 422 218 428 4 2 7 8 7 14
0 8 102 186 122 213 5 6 37 55 74 110 78 120 78 119 181 256 155 206 323 399
508 584 234 235 394 373 630 548 72 53 135 100 140 105 14 11 185 125 207 137
9 6 67 40 128 78 61 37 115 67 120 67 4 0 10 3 12 8 8 17 430 225 573 281 11
5 31 13 45 19 14 6 48 20 75 30 28 10 59 23 70 27 11 5 22 9 25 10 3 1 12 4
20 8 26 10 342 113 400 130 95 28 323 85 380 96 30 6 66 13 80 16 26 6 131 22
190 30 145 19 378 24 520 11 63 -6 144 -20 236 -40 31 -6 115 -32 149 -46 17
-6 31 -11 32 -11 3 0 66 -33 151 -80 23 -12 42 -26 42 -31 0 -4 5 -8 10 -8 12
0 57 -37 125 -105 131 -129 221 -336 217 -500 0 -27 -9 -123 -16 -182 -1 -13
-5 -26 -9 -29 -4 -4 -7 -17 -7 -28 0 -12 -9 -46 -20 -76 -23 -61 -26 -70 -30
-85 -1 -5 -25 -53 -52 -105 -219 -417 -667 -814 -1153 -1025 -22 -10 -54 -24
-72 -31 -17 -8 -33 -14 -36 -14 -3 0 -18 -5 -34 -12 -15 -6 -32 -12 -38 -14
-5 -2 -55 -17 -110 -34 -85 -26 -138 -40 -256 -65 -9 -2 -34 -6 -55 -10 -22
-3 -50 -8 -64 -10 -38 -7 -137 -16 -220 -20 -99 -6 -111 -8 -122 -28 -12 -23
5 -52 34 -56 42 -5 291 -3 358 3 142 14 221 25 298 42 15 4 36 8 47 9 11 2 20
4 20 5 0 2 5 3 55 13 14 3 41 11 60 17 19 6 44 13 55 15 30 7 165 54 204 72
18 8 40 16 47 17 8 1 20 8 26 14 7 7 18 12 25 12 23 0 214 99 322 167 57 37
217 149 238 168 6 5 33 28 60 50 187 154 363 359 500 580 80 129 161 341 185
485 13 76 16 253 5 320 -30 188 -126 386 -259 534 -99 112 -258 223 -398 280
-36 15 -74 31 -85 36 -57 26 -255 74 -350 85 -22 3 -56 7 -75 11 -41 7 -468
13 -474 7z m-3006 -6828 c178 -14 270 -25 343 -41 27 -6 28 -7 11 -25 -9 -10
-20 -19 -24 -19 -4 0 -26 -18 -49 -40 -22 -22 -46 -40 -51 -40 -6 0 -10 -7
-10 -15 0 -8 -5 -15 -11 -15 -6 0 -16 -6 -23 -13 -13 -12 -49 -42 -140 -115
-63 -51 -64 -52 -186 -143 -63 -47 -144 -105 -180 -129 -36 -25 -67 -47 -70
-50 -3 -3 -77 -52 -165 -110 -88 -58 -162 -107 -165 -110 -10 -10 -88 -52
-190 -103 -97 -48 -196 -86 -245 -93 -52 -8 -170 -3 -170 6 0 1 -8 3 -19 5
-38 7 -92 62 -125 127 -29 58 -33 77 -34 145 -1 106 7 139 55 228 29 53 31 55
123 150 115 118 264 214 448 288 95 39 247 78 357 93 25 3 47 8 51 9 3 2 54 7
115 10 60 4 110 8 111 9 4 3 161 -2 243 -9z"/>
</g>
</svg>
